{
    "photos": {
        "page": 1,
        "pages": 50,
        "perpage": 20,
        "total": 1000,
        "photo": [
            {
                "id": "52089528912",
                "owner": "190622906@N05",
                "secret": "0d20c31cef",
                "server": "65535",
                "farm": 66,
                "title": "Meguiar's Cleaner Wax Liquid 473ml",
                "ispublic": 1,
                "isfriend": 0,
                "isfamily": 0
            },
            {
                "id": "52089529267",
                "owner": "194110730@N04",
                "secret": "e81aa4d18d",
                "server": "65535",
                "farm": 66,
                "title": "fotor_1653210508694",
                "ispublic": 1,
                "isfriend": 0,
                "isfamily": 0
            },
            {
                "id": "52089529612",
                "owner": "194114375@N04",
                "secret": "2906603509",
                "server": "65535",
                "farm": 66,
                "title": "Énormément d’amour !!! Ou est le mien ?? 😉",
                "ispublic": 1,
                "isfriend": 0,
                "isfamily": 0
            },
            {
                "id": "52089530142",
                "owner": "195343253@N07",
                "secret": "c3166759c9",
                "server": "65535",
                "farm": 66,
                "title": "LED smart bathroom mirror (608)",
                "ispublic": 1,
                "isfriend": 0,
                "isfamily": 0
            },
            {
                "id": "52089530277",
                "owner": "195590384@N03",
                "secret": "61d6f4fc71",
                "server": "65535",
                "farm": 66,
                "title": "tokyo metoro 7119",
                "ispublic": 1,
                "isfriend": 0,
                "isfamily": 0
            },
            {
                "id": "52090559506",
                "owner": "195467384@N03",
                "secret": "1ee18c4a1f",
                "server": "65535",
                "farm": 66,
                "title": "New Telegram post by Russia - Ucraina ITA News. La triste guerra. Canale video notizie solo in italiano su Telegram by RTP [Conflitto europeo]",
                "ispublic": 1,
                "isfriend": 0,
                "isfamily": 0
            },
            {
                "id": "52090581783",
                "owner": "195108934@N02",
                "secret": "ea6904e653",
                "server": "65535",
                "farm": 66,
                "title": "Trying to find a Emergency First Aid Course in Astley Abbotts we can help here https://t.co/0KA4GL5Kzy. Covering all of Shropshire, we have helped thousands over the years #FirstAid #AstleyAbbotts #Shropshire",
                "ispublic": 1,
                "isfriend": 0,
                "isfamily": 0
            },
            {
                "id": "52090581863",
                "owner": "54830049@N03",
                "secret": "bb1707f6e3",
                "server": "65535",
                "farm": 66,
                "title": "Boooom!",
                "ispublic": 1,
                "isfriend": 0,
                "isfamily": 0
            },
            {
                "id": "52090582418",
                "owner": "68972881@N00",
                "secret": "a79a3e9b5d",
                "server": "65535",
                "farm": 66,
                "title": "die klimaanlage wurde nachträglich eingebaut",
                "ispublic": 1,
                "isfriend": 0,
                "isfamily": 0
            },
            {
                "id": "52090582538",
                "owner": "148713884@N03",
                "secret": "8fc5f1e488",
                "server": "65535",
                "farm": 66,
                "title": "Linsengericht.foto.stuttgart",
                "ispublic": 1,
                "isfriend": 0,
                "isfamily": 0
            },
            {
                "id": "52090804334",
                "owner": "67362533@N06",
                "secret": "f651de5e7c",
                "server": "65535",
                "farm": 66,
                "title": "Hangars Liquides",
                "ispublic": 1,
                "isfriend": 0,
                "isfamily": 0
            },
            {
                "id": "52090804599",
                "owner": "128753322@N08",
                "secret": "655c88baf1",
                "server": "65535",
                "farm": 66,
                "title": "Drohne überm Wohngebiet",
                "ispublic": 1,
                "isfriend": 0,
                "isfamily": 0
            },
            {
                "id": "52090804704",
                "owner": "190783994@N02",
                "secret": "0fb55739b6",
                "server": "65535",
                "farm": 66,
                "title": "Trying to find a Industrial Roller Shutters Company in Haswell Plough we can help here https://t.co/mzf533whgW. Covering all of Durham, we have helped thousands over the years #IndustrialRollerShutters #HaswellPlough #Durham",
                "ispublic": 1,
                "isfriend": 0,
                "isfamily": 0
            },
            {
                "id": "52090804744",
                "owner": "54449436@N00",
                "secret": "cd3c5d81d4",
                "server": "65535",
                "farm": 66,
                "title": "Tess lunch",
                "ispublic": 1,
                "isfriend": 0,
                "isfamily": 0
            },
            {
                "id": "52090804989",
                "owner": "7159257@N04",
                "secret": "c9c31097da",
                "server": "65535",
                "farm": 66,
                "title": "2022-05-22_10-11-15",
                "ispublic": 1,
                "isfriend": 0,
                "isfamily": 0
            },
            {
                "id": "52091064595",
                "owner": "52912530@N04",
                "secret": "b400df56ff",
                "server": "65535",
                "farm": 66,
                "title": "Flying out",
                "ispublic": 1,
                "isfriend": 0,
                "isfamily": 0
            },
            {
                "id": "52091064985",
                "owner": "194102045@N07",
                "secret": "16a5fdea30",
                "server": "65535",
                "farm": 66,
                "title": "Omuta - April 2015",
                "ispublic": 1,
                "isfriend": 0,
                "isfamily": 0
            },
            {
                "id": "52091065235",
                "owner": "12639178@N07",
                "secret": "ac9cdd3b12",
                "server": "65535",
                "farm": 66,
                "title": "Fliege (unbestimmt) (Brachycera indet.) (1)",
                "ispublic": 1,
                "isfriend": 0,
                "isfamily": 0
            },
            {
                "id": "52091065415",
                "owner": "158730994@N05",
                "secret": "c4c73ef103",
                "server": "65535",
                "farm": 66,
                "title": "",
                "ispublic": 1,
                "isfriend": 0,
                "isfamily": 0
            },
            {
                "id": "52091065500",
                "owner": "194286507@N03",
                "secret": "10cd5ea11b",
                "server": "65535",
                "farm": 66,
                "title": "ixba_creative_20220522_129",
                "ispublic": 1,
                "isfriend": 0,
                "isfamily": 0
            }
        ]
    },
    "stat": "ok"
}
